<?xml version="1.0" standalone="no"?>
<!DOCTYPE svg PUBLIC "-//W3C//DTD SVG 1.1//EN" "http://www.w3.org/Graphics/SVG/1.1/DTD/svg11.dtd" >
<svg xmlns="http://www.w3.org/2000/svg" xmlns:xlink="http://www.w3.org/1999/xlink" version="1.1" viewBox="-10 0 2324 2048">
  <g transform="matrix(1 0 0 -1 0 1638)">
   <path fill="currentColor"
d="M1856 998h-1536q-26 0 -45 -19t-19 -45v-640q0 -26 19 -45t45 -19h1536q26 0 45 19t19 45v640q0 26 -19 45t-45 19zM320 1254h1536q133 0 226.5 -93.5t93.5 -226.5v-64q53 0 90.5 -37.5t37.5 -90.5v-256q0 -53 -37.5 -90.5t-90.5 -37.5v-64q0 -133 -93.5 -226.5
t-226.5 -93.5h-1536q-133 0 -226.5 93.5t-93.5 226.5v640q0 133 93.5 226.5t226.5 93.5zM1152 870v-512h-768v512h768z" />
  </g>

</svg>
