<?xml version="1.0" standalone="no"?>
<!DOCTYPE svg PUBLIC "-//W3C//DTD SVG 1.1//EN" "http://www.w3.org/Graphics/SVG/1.1/DTD/svg11.dtd" >
<svg xmlns="http://www.w3.org/2000/svg" xmlns:xlink="http://www.w3.org/1999/xlink" version="1.1" viewBox="-10 0 1724 2048">
  <g transform="matrix(1 0 0 -1 0 1638)">
   <path fill="currentColor"
d="M852 -70q184 0 342 92t250 250t92 342t-92 342t-250 250t-342 92t-342 -92t-250 -250t-92 -342t92 -342t250 -250t342 -92zM852 1466q232 0 428 -114t310 -310t114 -428t-114 -428t-310 -310t-428 -114t-428 114t-310 310t-114 428t114 428t310 310t428 114zM896 1042
v-512h-128l-216 376l112 68l104 -188v256h128z" />
  </g>

</svg>
